<?xml version="1.0" encoding="UTF-8" standalone="no"?>
<svg
   id="svg2"
   height="56"
   width="56"
   version="1.1"
   sodipodi:docname="toolbar.svg"
   inkscape:version="1.3.2 (091e20e, 2023-11-25)"
   xmlns:inkscape="http://www.inkscape.org/namespaces/inkscape"
   xmlns:sodipodi="http://sodipodi.sourceforge.net/DTD/sodipodi-0.dtd"
   xmlns="http://www.w3.org/2000/svg"
   xmlns:svg="http://www.w3.org/2000/svg">
  <defs
     id="defs20" />
  <sodipodi:namedview
     pagecolor="#ffffff"
     bordercolor="#666666"
     borderopacity="1"
     objecttolerance="10"
     gridtolerance="10"
     guidetolerance="10"
     inkscape:pageopacity="0"
     inkscape:pageshadow="2"
     inkscape:window-width="2560"
     inkscape:window-height="1374"
     id="namedview18"
     showgrid="false"
     inkscape:current-layer="svg2"
     inkscape:showpageshadow="0"
     inkscape:pagecheckerboard="0"
     inkscape:deskcolor="#d1d1d1"
     inkscape:zoom="11.8"
     inkscape:cx="20.254237"
     inkscape:cy="27.966102"
     inkscape:window-x="0"
     inkscape:window-y="0"
     inkscape:window-maximized="1" />
  <style
     id="current-color-scheme"
     type="text/css">
        .ColorScheme-Text {
            color:#31363b;
            stop-color:#31363b;
        }
        .ColorScheme-Background {
            color:#eff0f1;
            stop-color:#eff0f1;
        }
    </style>
  <rect
     id="hint-tile-center"
     fill="#4e9a06"
     height="2"
     rx="0"
     ry="2"
     width="2"
     x="2.7475245"
     y="2.3446329" />
  <rect
     id="center"
     height="32"
     width="32"
     x="12"
     y="12"
     class="ColorScheme-Background"
     fill="currentColor" />
  <rect
     id="right"
     height="32"
     width="4"
     x="44"
     y="12"
     class="ColorScheme-Background"
     fill="currentColor" />
  <rect
     id="top"
     height="4"
     width="32"
     x="12"
     y="8"
     class="ColorScheme-Background"
     fill="currentColor" />
  <rect
     id="left"
     height="32"
     width="4"
     x="8"
     y="12"
     class="ColorScheme-Background"
     fill="currentColor" />
  <rect
     id="bottom"
     height="4"
     width="32"
     x="12"
     y="44"
     class="ColorScheme-Background"
     fill="currentColor" />
  <rect
     id="topleft"
     height="4"
     width="4"
     x="8"
     y="8"
     class="ColorScheme-Background"
     fill="currentColor" />
  <rect
     id="topright"
     height="4"
     width="4"
     x="44"
     y="8"
     class="ColorScheme-Background"
     fill="currentColor" />
  <rect
     id="bottomright"
     height="4"
     width="4"
     x="44"
     y="44"
     class="ColorScheme-Background"
     fill="currentColor" />
  <rect
     id="bottomleft"
     height="4"
     width="4"
     x="8"
     y="44"
     class="ColorScheme-Background"
     fill="currentColor" />
  <path
     id="hint-top-margin"
     d="m 27,8.0000001 h 2 V 12 h -2 z"
     fill="#0000ff"
     fill-rule="evenodd" />
  <path
     id="hint-left-margin"
     d="M 8.0000003,27 H 12 v 2 H 8.0000003 Z"
     fill="#0000ff"
     fill-rule="evenodd" />
  <path
     id="hint-bottom-margin"
     d="m 27,44 h 2 v 4 h -2 z"
     fill="#0000ff"
     fill-rule="evenodd" />
  <path
     id="hint-right-margin"
     d="m 44,27 h 4 v 2 h -4 z"
     fill="#0000ff"
     fill-rule="evenodd" />
</svg>
